[gd_scene load_steps=3 format=2]

[ext_resource path="res://system/client_world.gd" type="Script" id=1]
[ext_resource path="res://world/lobby/map.tscn" type="PackedScene" id=2]

[node name="world" type="Spatial" index="0"]
script = ExtResource( 1 )
_sections_unfolded = [ "Transform" ]

[node name="Camera" type="Camera" parent="." index="0"]
transform = Transform( 1, 0, 0, 0, 1, 0, 0, 0, 1, 0.821503, 5.51125, 9.22274 )
keep_aspect = 1
cull_mask = 1048575
environment = null
h_offset = 0.0
v_offset = 0.0
doppler_tracking = 0
projection = 0
current = false
fov = 70.0
size = 1.0
near = 0.05
far = 100.0

[node name="map" parent="." index="1" instance=ExtResource( 2 )]

